Hands-on Exercise 6: Handling, Processing Visualising and Analysing Movement Data
…
- After importing the data file into R, it is important for us to review the data object.

```r
print(apartments)
```

```
## Simple feature collection with 1517 features and 5 fields
## Geometry type: POINT
## Dimension:     XY
## Bounding box:  xmin: -4616.828 ymin: 22.16098 xmax: 2488.067 ymax: 7829.905
## CRS:           NA
## # A tibble: 1,517 × 6
##    apartmentId rentalCost maxOccupancy numberOfRooms             location
##    <chr>       <chr>      <chr>        <chr>                      <POINT>
##  1 1           768.16     2            4              (1077.698 648.4427)
##  2 2           1014.55    2            1             (-185.9293 1520.327)
##  3 3           1057.39    4            3              (2123.014 5126.753)
##  4 4           1259.1     4            3               (2103.63 4266.933)
##  5 5           411.5      1            4              (7.058974 79.96164)
##  6 6           859.58     3            2              (2250.855 5251.337)
##  7 7           982.11     3            4              (486.8811 2251.126)
##  8 8           980.05     4            1              (1233.455 1768.611)
##  9 9           433.45     1            3              (1274.272 1163.505)
## 10 10          1104.33    3            4               (-1697.03 1239.03)
## # … with 1,507 more rows, and 1 more variable: buildingId <chr>
```
…
Now we will print the *buildings* simple feature data.frame.

```r
print(buildings)
```

```
## Simple feature collection with 1042 features and 4 fields
## Geometry type: POLYGON
## Dimension:     XY
## Bounding box:  xmin: -4762.191 ymin: -30.08359 xmax: 2650 ymax: 7850.037
## CRS:           NA
## # A tibble: 1,042 × 5
##    buildingId                           location buildingType maxOccupancy units
##    <chr>                               <POLYGON> <chr>        <chr>        <chr>
##  1 1          ((350.0639 4595.666, 390.0633 459… Commercial   ""           ""   
##  2 2          ((-1926.973 2725.611, -1948.191 2… Residental   "12"         "[48…
##  3 3          ((685.6846 1552.131, 645.9985 154… Commercial   ""           "[38…
##  4 4          ((-976.7845 4542.382, -1053.288 4… Commercial   ""           ""   
##  5 5          ((1259.306 3572.727, 1299.255 357… Residental   "2"          "[23…
##  6 6          ((478.8969 1082.484, 473.6596 113… Commercial   ""           ""   
##  7 7          ((-1920.823 615.7447, -1960.818 6… Residental   ""           ""   
##  8 8          ((-3302.657 5394.354, -3301.512 5… Commercial   ""           "[13…
##  9 9          ((-600.5789 4429.228, -495.9506 4… Commercial   ""           ""   
## 10 10         ((-68.75908 5379.924, -28.78232 5… Residental   "5"          "[10…
## # … with 1,032 more rows
```
…
.pull-right[

```r
print(logs_path)
```

```
## Simple feature collection with 5781 features and 3 fields
## Geometry type: LINESTRING
## Dimension:     XY
## Bounding box:  xmin: -4616.828 ymin: 35.4377 xmax: 2630 ymax: 7836.546
## CRS:           NA
## # A tibble: 5,781 × 4
## # Groups:   participantId [1,011]
##    participantId   day m                                         currentLocation
##    <chr>         <int> <dttm>                                       <LINESTRING>
##  1 0                 1 2022-03-01 13:34:23 (-2721.353 6862.861, -2689.275 6644.…
##  2 0                 2 2022-03-02 14:19:50 (-2721.353 6862.861, -2689.275 6644.…
##  3 0                 3 2022-03-03 13:39:13 (-2721.353 6862.861, -2689.275 6644.…
##  4 0                 4 2022-03-04 13:38:11 (-2721.353 6862.861, -2689.275 6644.…
##  5 0                 5 2022-03-05 13:08:02 (-2721.353 6862.861, -2689.275 6644.…
##  6 0                 6 2022-03-06 06:28:00 (-2721.353 6862.861, -2689.275 6644.…
##  7 1                 1 2022-03-01 18:07:24 (-1531.133 5597.244, -1863.284 5825.…
##  8 1                 2 2022-03-02 16:57:05 (-2619.036 5860.49, -2200.679 5828.4…
##  9 1                 3 2022-03-03 14:13:40 (-260.4575 5026.151, -352.5088 5294.…
## 10 1                 4 2022-03-04 14:31:45 (-3903.194 5967.837, -3655.902 5869.…
## # … with 5,771 more rows
```
…
