In-Class Exercise 8: MovementVis with R
…
In the code chunk below, [*as_factor()*](https://forcats.tidyverse.org/reference/as_factor.html) of [**forcats**](https://forcats.tidyverse.org/index.html) package is used to convert values in id field from numerical to factor data type.   

```r
gps$id <- as_factor(gps$id)
```
]

.pull-right[

```r
gps
```

```
## # A tibble: 685,169 x 5
##    Timestamp           id      lat  long day  
##    <dttm>              <fct> <dbl> <dbl> <fct>
##  1 2014-01-06 06:28:01 35     36.1  24.9 6    
##  2 2014-01-06 06:28:01 35     36.1  24.9 6    
##  3 2014-01-06 06:28:03 35     36.1  24.9 6    
##  4 2014-01-06 06:28:05 35     36.1  24.9 6    
##  5 2014-01-06 06:28:06 35     36.1  24.9 6    
##  6 2014-01-06 06:28:07 35     36.1  24.9 6    
##  7 2014-01-06 06:28:09 35     36.1  24.9 6    
##  8 2014-01-06 06:28:10 35     36.1  24.9 6    
##  9 2014-01-06 06:28:11 35     36.1  24.9 6    
## 10 2014-01-06 06:28:12 35     36.1  24.9 6    
## # ... with 685,159 more rows
```
…
--
.pull-right[

```r
gps_sf
```

```
## Simple feature collection with 685169 features and 3 fields
## Geometry type: POINT
## Dimension:     XY
## Bounding box:  xmin: 24.82509 ymin: 36.04802 xmax: 24.90849 ymax: 36.08996
## Geodetic CRS:  WGS 84
## # A tibble: 685,169 x 4
##    Timestamp           id    day              geometry
##  * <dttm>              <fct> <fct>         <POINT [°]>
##  1 2014-01-06 06:28:01 35    6     (24.87469 36.07623)
##  2 2014-01-06 06:28:01 35    6      (24.8746 36.07622)
##  3 2014-01-06 06:28:03 35    6     (24.87444 36.07621)
##  4 2014-01-06 06:28:05 35    6     (24.87425 36.07622)
##  5 2014-01-06 06:28:06 35    6     (24.87417 36.07621)
##  6 2014-01-06 06:28:07 35    6     (24.87406 36.07619)
##  7 2014-01-06 06:28:09 35    6     (24.87391 36.07619)
##  8 2014-01-06 06:28:10 35    6     (24.87381 36.07618)
##  9 2014-01-06 06:28:11 35    6     (24.87374 36.07617)
## 10 2014-01-06 06:28:12 35    6     (24.87362 36.07618)
## # ... with 685,159 more rows
```
…
--
.pull-right[

```r
gps_path
```

```
## Simple feature collection with 508 features and 3 fields
## Geometry type: LINESTRING
## Dimension:     XY
## Bounding box:  xmin: 24.82509 ymin: 36.04802 xmax: 24.90849 ymax: 36.08996
## Geodetic CRS:  WGS 84
## # A tibble: 508 x 4
## # Groups:   id [40]
##    id    day   m                                                        geometry
##    <fct> <fct> <dttm>                                           <LINESTRING [°]>
##  1 1     6     2014-01-06 15:02:08 (24.88258 36.06646, 24.88259 36.06634, 24.88~
##  2 1     7     2014-01-07 12:41:07 (24.87957 36.04803, 24.87957 36.04811, 24.87~
##  3 1     8     2014-01-08 14:35:25 (24.88265 36.06643, 24.88266 36.06637, 24.88~
##  4 1     9     2014-01-09 12:04:45 (24.88261 36.06646, 24.88257 36.06647, 24.88~
##  5 1     10    2014-01-10 16:04:58 (24.88265 36.0665, 24.88261 36.06628, 24.882~
##  6 1     11    2014-01-11 16:18:32 (24.88258 36.06651, 24.88246 36.06642, 24.88~
##  7 1     12    2014-01-12 13:31:05 (24.88259 36.06643, 24.8824 36.06651, 24.882~
##  8 1     13    2014-01-13 13:46:15 (24.88265 36.06642, 24.8826 36.06641, 24.882~
##  9 1     14    2014-01-14 14:04:23 (24.88261 36.06644, 24.88262 36.06641, 24.88~
## 10 1     15    2014-01-15 15:33:54 (24.88263 36.06647, 24.88257 36.06637, 24.88~
## # ... with 498 more rows
```
…
