In-class Exercise 10: Text Visual Analytics with R
…
---
### Visualising Words in newsgroups

Now that we’ve removed the headers, signatures, and formatting, we can start exploring common words. For starters, we could find the most common words in the entire dataset, or within particular newsgroups.

```r
usenet_words %>%
  count(word, sort = TRUE)
```

```
## # A tibble: 5,542 x 2
##    word           n
##    <chr>      <int>
##  1 people        57
##  2 time          50
##  3 jesus         47
##  4 god           44
##  5 message       40
##  6 br            27
##  7 bible         23
##  8 drive         23
##  9 homosexual    23
## 10 read          22
## # ... with 5,532 more rows
```
…
