In-Class Exercise 9: Visualising and Analysing Network Data with R
…
---
### Creating Edges list

Creating an edge list is similar to the above, but it is complicated by the need to deal with two ID columns instead of one. We also want to create a weight column that will note the amount of letters sent between each set of nodes. The code chunk below will be used to accomplish the task.

```r
edges <- cc_data %>%  
  group_by(last4ccnum, location, Day, Hour) %>%
  summarise(weight = n()) %>% 
  ungroup()
edges
```

```
## # A tibble: 1,490 x 5
##    last4ccnum location              Day  Hour weight
##    <chr>      <chr>               <int> <int>  <int>
##  1 1286       Abila Zacharo           6    13      1
##  2 1286       Abila Zacharo           9    13      1
##  3 1286       Abila Zacharo          13    13      1
##  4 1286       Abila Zacharo          16    13      1
##  5 1286       Ahaggo Museum          18    14      1
##  6 1286       Brew've Been Served     6     8      1
##  7 1286       Brew've Been Served     7     7      1
##  8 1286       Brew've Been Served     8     8      1
##  9 1286       Brew've Been Served     9     8      1
## 10 1286       Brew've Been Served    10     8      1
## # ... with 1,480 more rows
```
…
--
.pull-right[
Now that edges has “from” and “to” columns with node IDs, we need to reorder the columns to bring “from” and “to” to the left of the data frame.  This task will be accomplished by using *select()* of **dplyr** as shown below.

```r
cc_edges <- select(cc_edges, from, to, 
                   Day, Hour, weight)
cc_edges
```

```
## # A tibble: 1,490 x 5
##     from    to   Day  Hour weight
##    <int> <int> <int> <int>  <int>
##  1    27    71     6    13      1
##  2    27    71     9    13      1
##  3    27    71    13    13      1
##  4    27    71    16    13      1
##  5    27    87    18    14      1
##  6    27    56     6     8      1
##  7    27    56     7     7      1
##  8    27    56     8     8      1
##  9    27    56     9     8      1
## 10    27    56    10     8      1
## # ... with 1,480 more rows
```
…
